hw1_2/dump.vcd
$date
	Fri Jan 27 12:45:41 2017
$end
$version
	QuestaSim Version 10.4c
$end
$timescale
	1ns
$end

$scope module fulladder1_bench $end
$var reg 1 ! A $end
$var reg 1 " B $end
$var reg 2 # Sumcalc [1:0] $end
$var reg 1 $ Cin $end
$var wire 1 % SUM $end
$var wire 1 & CO $end
$var wire 1 ' Clk $end
$var wire 1 ( rst $end
$var wire 1 ) err $end

$scope module my_clkrst $end
$var reg 1 * clk $end
$var reg 1 + rst $end
$var wire 1 ) err $end
$var integer 32 , cycle_count $end
$upscope $end

$scope module DUT $end
$var wire 1 - A $end
$var wire 1 . B $end
$var wire 1 / Cin $end
$var wire 1 % S $end
$var wire 1 & Cout $end
$var wire 1 0 xorab $end
$var wire 1 1 nandab $end
$var wire 1 2 xor2 $end

$scope module x1 $end
$var wire 1 - in1 $end
$var wire 1 . in2 $end
$var wire 1 0 out $end
$upscope $end

$scope module x2 $end
$var wire 1 0 in1 $end
$var wire 1 / in2 $end
$var wire 1 % out $end
$upscope $end

$scope module n1 $end
$var wire 1 - in1 $end
$var wire 1 . in2 $end
$var wire 1 1 out $end
$upscope $end

$scope module n2 $end
$var wire 1 0 in1 $end
$var wire 1 / in2 $end
$var wire 1 2 out $end
$upscope $end

$scope module n3 $end
$var wire 1 2 in1 $end
$var wire 1 1 in2 $end
$var wire 1 & out $end
$upscope $end
$upscope $end
$upscope $end
$enddefinitions $end
#0
$dumpvars
0!
1"
bx #
1$
1*
1+
b1 ,
0%
1&
1'
1(
z)
10
11
02
1/
1.
0-
$end
#50
0*
0'
b10 #
#100
1*
1'
1!
b10 ,
1-
00
01
1%
12
#150
0*
0'
b11 #
#200
1*
1'
0"
b11 ,
0.
10
11
0&
0%
02
1&
#201
0+
0(
#250
0*
0'
b10 #
#300
1*
1'
b100 ,
#350
0*
0'
#400
1*
1'
b101 ,
#450
0*
0'
#500
1*
1'
0!
1"
0$
b110 ,
0-
1.
0/
1%
12
0&
#550
0*
0'
b1 #
#600
1*
1'
1!
b111 ,
1-
00
01
1&
0%
#650
0*
0'
b10 #
#700
1*
1'
0"
b1000 ,
0.
10
11
0&
1%
#750
0*
0'
b1 #
#800
1*
1'
0!
1"
b1001 ,
0-
1.
#850
0*
0'
#900
1*
1'
1!
1$
b1010 ,
1-
1/
0%
02
00
01
1%
12
1&
#950
0*
0'
b11 #
#1000
1*
1'
0"
0$
b1011 ,
0.
0/
0%
10
11
0&
1%
#1050
0*
0'
b1 #
#1100
1*
1'
0!
1$
b1100 ,
0-
1/
0%
02
00
1%
12
#1150
0*
0'
#1200
1*
1'
1"
b1101 ,
1.
10
0%
02
1&
#1250
0*
0'
b10 #
#1300
1*
1'
1!
b1110 ,
1-
00
01
1%
12
#1350
0*
0'
b11 #
#1400
1*
1'
0!
0"
b1111 ,
0-
0.
11
0&
#1450
0*
0'
b1 #
#1500
1*
1'
1!
1"
0$
b10000 ,
1-
1.
0/
0%
01
1&
#1550
0*
0'
b10 #
#1600
1*
1'
0!
0"
b10001 ,
0-
0.
11
0&
#1650
0*
0'
b0 #
#1700
1*
1'
1"
b10010 ,
1.
10
1%
#1750
0*
0'
b1 #
#1800
1*
1'
1$
b10011 ,
1/
0%
02
1&
#1850
0*
0'
b10 #
#1900
1*
1'
0"
0$
b10100 ,
0.
0/
1%
12
00
0%
0&
#1950
0*
0'
b0 #
#2000
1*
1'
1$
b10101 ,
1/
1%
#2050
0*
0'
b1 #
#2100
1*
1'
1!
1"
b10110 ,
1-
1.
01
1&
#2150
0*
0'
b11 #
#2200
1*
1'
0"
0$
b10111 ,
0.
0/
0%
10
11
0&
1%
#2250
0*
0'
b1 #
#2300
1*
1'
1"
1$
b11000 ,
1.
1/
0%
02
00
01
1%
12
1&
#2350
0*
0'
b11 #
#2400
1*
1'
0!
0"
b11001 ,
0-
0.
11
0&
#2450
0*
0'
b1 #
#2500
1*
1'
1!
b11010 ,
1-
10
0%
02
1&
#2550
0*
0'
b10 #
#2600
1*
1'
b11011 ,
#2650
0*
0'
#2700
1*
1'
1"
0$
b11100 ,
1.
0/
1%
12
00
01
0%
#2750
0*
0'
#2800
1*
1'
b11101 ,
#2850
0*
0'
#2900
1*
1'
0!
0"
b11110 ,
0-
0.
11
0&
#2950
0*
0'
b0 #
#3000
1*
1'
1!
1"
b11111 ,
1-
1.
01
1&
#3050
0*
0'
b10 #
#3100
1*
1'
0!
1$
b100000 ,
0-
1/
1%
10
11
0&
0%
02
1&
