HW2_files/hw2_2/dump.vcd
$date
	Sun Feb 12 00:28:41 2017
$end
$version
	QuestaSim Version 10.4c
$end
$timescale
	1ns
$end

$scope module alu_hier_bench $end
$var reg 16 ! A_pre_inv [15:0] $end
$var reg 16 " B_pre_inv [15:0] $end
$var wire 1 # A [15] $end
$var wire 1 $ A [14] $end
$var wire 1 % A [13] $end
$var wire 1 & A [12] $end
$var wire 1 ' A [11] $end
$var wire 1 ( A [10] $end
$var wire 1 ) A [9] $end
$var wire 1 * A [8] $end
$var wire 1 + A [7] $end
$var wire 1 , A [6] $end
$var wire 1 - A [5] $end
$var wire 1 . A [4] $end
$var wire 1 / A [3] $end
$var wire 1 0 A [2] $end
$var wire 1 1 A [1] $end
$var wire 1 2 A [0] $end
$var wire 1 3 B [15] $end
$var wire 1 4 B [14] $end
$var wire 1 5 B [13] $end
$var wire 1 6 B [12] $end
$var wire 1 7 B [11] $end
$var wire 1 8 B [10] $end
$var wire 1 9 B [9] $end
$var wire 1 : B [8] $end
$var wire 1 ; B [7] $end
$var wire 1 < B [6] $end
$var wire 1 = B [5] $end
$var wire 1 > B [4] $end
$var wire 1 ? B [3] $end
$var wire 1 @ B [2] $end
$var wire 1 A B [1] $end
$var wire 1 B B [0] $end
$var reg 1 C Cin $end
$var reg 3 D Op [2:0] $end
$var reg 1 E invA $end
$var reg 1 F invB $end
$var reg 1 G sign $end
$var wire 1 H Out [15] $end
$var wire 1 I Out [14] $end
$var wire 1 J Out [13] $end
$var wire 1 K Out [12] $end
$var wire 1 L Out [11] $end
$var wire 1 M Out [10] $end
$var wire 1 N Out [9] $end
$var wire 1 O Out [8] $end
$var wire 1 P Out [7] $end
$var wire 1 Q Out [6] $end
$var wire 1 R Out [5] $end
$var wire 1 S Out [4] $end
$var wire 1 T Out [3] $end
$var wire 1 U Out [2] $end
$var wire 1 V Out [1] $end
$var wire 1 W Out [0] $end
$var wire 1 X Ofl $end
$var wire 1 Y Z $end
$var reg 1 Z fail $end
$var reg 1 [ cerror $end
$var reg 32 \ ExOut [31:0] $end
$var reg 1 ] ExOfl $end
$var reg 1 ^ ExZ $end
$var integer 32 _ idx $end

$scope module DUT $end
$var wire 1 ` A [15] $end
$var wire 1 a A [14] $end
$var wire 1 b A [13] $end
$var wire 1 c A [12] $end
$var wire 1 d A [11] $end
$var wire 1 e A [10] $end
$var wire 1 f A [9] $end
$var wire 1 g A [8] $end
$var wire 1 h A [7] $end
$var wire 1 i A [6] $end
$var wire 1 j A [5] $end
$var wire 1 k A [4] $end
$var wire 1 l A [3] $end
$var wire 1 m A [2] $end
$var wire 1 n A [1] $end
$var wire 1 o A [0] $end
$var wire 1 p B [15] $end
$var wire 1 q B [14] $end
$var wire 1 r B [13] $end
$var wire 1 s B [12] $end
$var wire 1 t B [11] $end
$var wire 1 u B [10] $end
$var wire 1 v B [9] $end
$var wire 1 w B [8] $end
$var wire 1 x B [7] $end
$var wire 1 y B [6] $end
$var wire 1 z B [5] $end
$var wire 1 { B [4] $end
$var wire 1 | B [3] $end
$var wire 1 } B [2] $end
$var wire 1 ~ B [1] $end
$var wire 1 !! B [0] $end
$var wire 1 "! Cin $end
$var wire 1 #! Op [2] $end
$var wire 1 $! Op [1] $end
$var wire 1 %! Op [0] $end
$var wire 1 &! invA $end
$var wire 1 '! invB $end
$var wire 1 (! sign $end
$var wire 1 H Out [15] $end
$var wire 1 I Out [14] $end
$var wire 1 J Out [13] $end
$var wire 1 K Out [12] $end
$var wire 1 L Out [11] $end
$var wire 1 M Out [10] $end
$var wire 1 N Out [9] $end
$var wire 1 O Out [8] $end
$var wire 1 P Out [7] $end
$var wire 1 Q Out [6] $end
$var wire 1 R Out [5] $end
$var wire 1 S Out [4] $end
$var wire 1 T Out [3] $end
$var wire 1 U Out [2] $end
$var wire 1 V Out [1] $end
$var wire 1 W Out [0] $end
$var wire 1 X Ofl $end
$var wire 1 Y Z $end
$var wire 1 )! clk $end
$var wire 1 *! rst $end
$var wire 1 +! err $end

$scope module c0 $end
$var reg 1 ,! clk $end
$var reg 1 -! rst $end
$var wire 1 +! err $end
$var integer 32 .! cycle_count $end
$upscope $end

$scope module a0 $end
$var wire 1 ` A [15] $end
$var wire 1 a A [14] $end
$var wire 1 b A [13] $end
$var wire 1 c A [12] $end
$var wire 1 d A [11] $end
$var wire 1 e A [10] $end
$var wire 1 f A [9] $end
$var wire 1 g A [8] $end
$var wire 1 h A [7] $end
$var wire 1 i A [6] $end
$var wire 1 j A [5] $end
$var wire 1 k A [4] $end
$var wire 1 l A [3] $end
$var wire 1 m A [2] $end
$var wire 1 n A [1] $end
$var wire 1 o A [0] $end
$var wire 1 p B [15] $end
$var wire 1 q B [14] $end
$var wire 1 r B [13] $end
$var wire 1 s B [12] $end
$var wire 1 t B [11] $end
$var wire 1 u B [10] $end
$var wire 1 v B [9] $end
$var wire 1 w B [8] $end
$var wire 1 x B [7] $end
$var wire 1 y B [6] $end
$var wire 1 z B [5] $end
$var wire 1 { B [4] $end
$var wire 1 | B [3] $end
$var wire 1 } B [2] $end
$var wire 1 ~ B [1] $end
$var wire 1 !! B [0] $end
$var wire 1 "! Cin $end
$var wire 1 #! Op [2] $end
$var wire 1 $! Op [1] $end
$var wire 1 %! Op [0] $end
$var wire 1 &! invA $end
$var wire 1 '! invB $end
$var wire 1 (! sign $end
$var wire 1 H Out [15] $end
$var wire 1 I Out [14] $end
$var wire 1 J Out [13] $end
$var wire 1 K Out [12] $end
$var wire 1 L Out [11] $end
$var wire 1 M Out [10] $end
$var wire 1 N Out [9] $end
$var wire 1 O Out [8] $end
$var wire 1 P Out [7] $end
$var wire 1 Q Out [6] $end
$var wire 1 R Out [5] $end
$var wire 1 S Out [4] $end
$var wire 1 T Out [3] $end
$var wire 1 U Out [2] $end
$var wire 1 V Out [1] $end
$var wire 1 W Out [0] $end
$var wire 1 X Ofl $end
$var wire 1 Y Z $end
$upscope $end
$upscope $end
$upscope $end
$enddefinitions $end
#0
$dumpvars
b11010100100100 !
b101111010000001 "
1C
b11 D
1E
1F
1G
0Z
x[
bx \
x]
x^
1,!
1-!
bx _
b1 .!
12
11
00
1/
1.
0-
1,
1+
0*
1)
0(
1'
0&
0%
1$
1#
0B
1A
1@
1?
1>
1=
1<
0;
1:
09
08
07
06
15
04
13
zW
zV
zU
zT
zS
zR
zQ
zP
zO
zN
zM
zL
zK
zJ
zI
zH
zX
zY
1)!
1*!
0+!
1(!
1'!
1&!
1%!
1$!
0#!
1"!
1!!
0~
0}
0|
0{
0z
0y
1x
0w
1v
1u
1t
1s
0r
1q
0p
0o
0n
1m
0l
0k
1j
0i
0h
1g
0f
1e
0d
1c
1b
0a
0`
$end
#50
0,!
0)!
0[
b0 \
0^
0]
b11 \
1[
1Z
#100
1,!
1)!
b101001000010010 !
b1110001100000001 "
b110 D
0G
b10 .!
0%!
1#!
0x
1w
0u
0t
0s
1r
1p
1;
0:
18
17
16
05
03
1n
0m
1k
0j
0g
1f
0e
0b
1a
01
10
0.
1-
1*
0)
1(
1%
0$
0(!
#150
0,!
0)!
0[
b0 \
b1011000100010011 \
1[
#200
1,!
1)!
b1110100111111001 !
b10010011000110 "
b10 D
b11 .!
0#!
0!!
1~
1}
1y
1x
0w
0v
1u
0q
0p
1B
0A
0@
0<
0;
1:
19
08
14
13
1o
0n
1l
1j
1i
1h
1g
0f
1d
0c
1b
1`
02
11
0/
0-
0,
0+
0*
1)
0'
1&
0%
0#
#201
0-!
0*!
#250
0,!
0)!
0[
b0 \
b11111 _
b11110 _
b11101 _
b11100 _
b11011 _
b11010 _
b11001 _
b11000 _
b10111 _
b10110 _
b10101 _
b10100 _
b10011 _
b10010 _
b10001 _
b10000 _
b1111 _
b1011000000110 \
b1011 \
1[
#300
1,!
1)!
b1101101110001111 !
b110100111110010 "
0C
b0 D
0F
1G
b100 .!
0"!
0$!
0}
1{
1z
1w
0u
1t
1q
0B
1A
0?
1<
1;
09
06
15
03
1n
1m
0k
0j
0i
1f
1c
0b
01
00
1.
1-
1,
0)
0&
1%
0'!
1(!
#350
0,!
0)!
0[
b0 \
b1001000111000000 \
1[
#400
1,!
1)!
b101100000101101 !
b10011001100101 "
1C
b10 D
0E
0G
b101 .!
1"!
1$!
1!!
0~
1}
0{
0x
0w
1v
1u
0t
0q
1B
0A
1@
0>
0;
0:
19
18
07
04
0n
1j
0h
0g
0f
0`
12
10
1/
0.
0,
0(
1'
1&
0%
1$
0&!
0(!
#450
0,!
0)!
0[
b0 \
b11111 _
b11110 _
b11101 _
b11100 _
b11011 _
b11010 _
b11001 _
b11000 _
b10111 _
b10110 _
b10101 _
b10100 _
b10011 _
b10010 _
b10001 _
b10000 _
b1111 _
b101100000101101 \
b1011000001 \
1[
#500
1,!
1)!
b1100110010011101 !
b11111010010110 "
b101 D
1E
1F
1G
b110 .!
1%!
0$!
1#!
0!!
1~
1{
0z
0y
1x
1t
1s
0@
1?
1:
09
08
05
14
13
1k
0j
1h
1e
0c
1`
02
11
00
0/
1,
1*
1)
0'
1%
0$
1&!
1'!
1(!
#550
0,!
0)!
0[
b0 \
b1111001101101011 \
1[
#600
1,!
1)!
b100101000000010 !
b11111010101110 "
b111 D
0F
0G
b111 .!
1$!
1|
0{
1z
0B
1A
1@
0<
1;
0:
19
18
17
16
15
04
03
0o
1n
0m
0l
0k
0h
1f
0e
0`
12
01
10
1/
1.
1+
0)
1(
1#
0'!
0(!
#650
0,!
0)!
0[
b0 \
b11010010101100 \
1[
#700
1,!
1)!
b100110000111100 !
b1011110111110010 "
0C
b1 D
0E
1G
b1000 .!
0"!
0$!
0#!
0}
0|
1{
1y
1w
0v
1p
0@
0?
1>
1<
1:
09
13
0n
1m
1l
1k
1j
0f
1e
02
0,
0+
0*
1'
0&
0%
1$
0#
0&!
1(!
#750
0,!
0)!
0[
b0 \
b10011000011110000 \
1[
#800
1,!
1)!
b110111101011 !
b110010110110110 "
b110 D
b1001 .!
0%!
1$!
1#!
1}
0y
0t
0s
1q
0p
1@
0<
07
06
14
03
1o
1n
0m
0k
1i
1h
1g
0a
12
11
00
0.
1,
1+
1*
0$
#850
0,!
0)!
0[
b0 \
b110100001011101 \
1[
#900
1,!
1)!
b1011111001110001 !
b100000110000101 "
1C
b11 D
b1010 .!
1"!
1%!
0#!
1!!
0~
0{
0z
0u
0r
1B
0A
0>
0=
08
05
0n
0l
1k
0h
0g
1f
1c
1b
1`
01
0/
1.
0+
0*
1)
1&
1%
1#
#950
0,!
0)!
0[
b0 \
b10111110011 \
1[
#1000
1,!
1)!
b1001101111110001 !
b100101111011001 "
0C
b100 D
1E
1F
0G
b1011 .!
0"!
0%!
0$!
1#!
0}
1|
1{
1y
1v
1t
0B
1A
1=
0;
0:
18
16
15
04
13
1h
1g
0e
0b
02
11
10
1/
0.
0-
0,
0)
0'
0&
1$
0#
1&!
1'!
0(!
#1050
0,!
0)!
0[
b0 \
b10001100000110100 \
1]
1[
#1100
1,!
1)!
b110000010110111 !
b101011010011111 "
b11 D
b1100 .!
1%!
1$!
0#!
1~
1}
0y
0w
1u
0t
1s
0A
0@
1<
1:
08
17
06
1n
1m
0i
0g
0f
0d
0c
1b
1a
0`
01
00
1,
1*
1)
1'
1&
0%
0$
1#
#1150
0,!
0)!
0[
b0 \
0]
b1001111101001000 \
1[
#1200
1,!
1)!
b1100000011010111 !
b1111110001010001 "
b100 D
0E
0F
1G
b1101 .!
0%!
0$!
1#!
0~
0}
0|
1y
0x
0v
1t
1r
1p
1B
1>
0=
0:
18
16
14
0j
1i
0b
1`
12
11
10
0/
1.
1+
0*
0)
0(
0'
0&
1$
0&!
0'!
1(!
#1250
0,!
0)!
0[
b0 \
b11011110100101000 \
1[
#1300
1,!
1)!
b1110110100111101 !
b1101101100010010 "
b101 D
1E
1F
b1110 .!
1%!
0!!
1~
0y
1w
1v
0u
0r
1@
1?
0>
1=
1;
07
06
04
03
0n
1l
1j
0i
0h
1g
1e
1d
1b
02
00
0.
1)
1&
0$
0#
1&!
1'!
#1350
0,!
0)!
0[
b0 \
b11011011101111 \
1[
#1400
1,!
1)!
b10111110000101 !
b1000100001111000 "
1C
b1 D
0F
0G
b1111 .!
1"!
0#!
0~
1|
1z
1y
0w
0v
0s
0q
0B
0@
1>
0;
08
17
05
13
0l
0k
0j
1h
1f
0a
0`
1/
1.
1-
0+
0)
1$
1#
0'!
0(!
#1450
0,!
0)!
0[
b0 \
b110100000111101000000000 \
1[
#1500
1,!
1)!
b11100010000110 !
b110010001110 "
0C
b10 D
0E
1F
1G
b10000 .!
0"!
0%!
1$!
1~
1}
0{
0z
0y
1x
1u
0p
1B
0?
1:
19
07
16
15
14
0o
1n
0g
0f
0e
1c
10
0/
0.
0-
0,
1+
1'
1%
0$
0#
0&!
1'!
1(!
#1550
0,!
0)!
0[
b0 \
b11111 _
b11110 _
b11101 _
b11100 _
b11011 _
b11010 _
b11001 _
b11000 _
b10111 _
b10110 _
b10101 _
b10100 _
b10011 _
b10010 _
b10001 _
b10000 _
b1111 _
b11100010000110 \
b1110001000011 \
1[
#1600
1,!
1)!
b1010100000101111 !
b1001001010110011 "
1C
b100 D
1E
0G
b10001 .!
1"!
0$!
1#!
1!!
0}
0|
1{
1z
1v
0u
0t
1s
1p
0B
1@
1?
0>
0=
09
18
17
06
03
1o
1l
1j
0h
0c
1`
01
00
1.
1,
1*
1)
1(
0'
0%
1$
1&!
0(!
#1650
0,!
0)!
0[
b0 \
b1100010100011101 \
1[
#1700
1,!
1)!
b1101101101011010 !
b1100000100101001 "
b10 D
1G
b10010 .!
1$!
0#!
0~
1|
0{
0x
1w
0v
0s
1q
1A
0?
1>
1;
0:
19
16
04
0o
0m
1k
0j
1i
1g
1f
1c
0b
1a
12
10
0.
1-
0,
0*
0)
0&
1%
0$
1(!
#1750
0,!
0)!
0[
b0 \
b11111 _
b11110 _
b11101 _
b11100 _
b11011 _
b11010 _
b11001 _
b11000 _
b10111 _
b10110 _
b10101 _
b10100 _
b10011 _
b10010 _
b10001 _
b10000 _
b1111 _
b10010010100101 \
b10010010 \
1[
#1800
1,!
1)!
b1100101111001 !
b1111111101000100 "
0C
0F
0G
b10011 .!
0!!
1}
0|
0z
1y
1v
1u
1t
1s
1r
0A
0>
0;
1:
14
13
1o
0n
1j
0f
0a
0`
02
11
0-
1)
1$
1#
0"!
0'!
0(!
#1850
0,!
0)!
0[
b0 \
b11111 _
b10000000000000000000000000000000 \
b11110 _
b11000000000000000000000000000000 \
b11101 _
b11100000000000000000000000000000 \
b11100 _
b11110000000000000000000000000000 \
b11011 _
b11111000000000000000000000000000 \
b11010 _
b11111100000000000000000000000000 \
b11001 _
b11111110000000000000000000000000 \
b11000 _
b11111111000000000000000000000000 \
b10111 _
b11111111100000000000000000000000 \
b10110 _
b11111111110000000000000000000000 \
b10101 _
b11111111111000000000000000000000 \
b10100 _
b11111111111100000000000000000000 \
b10011 _
b11111111111110000000000000000000 \
b10010 _
b11111111111111000000000000000000 \
b10001 _
b11111111111111100000000000000000 \
b10000 _
b11111111111111110000000000000000 \
b1111 _
b11111111111111111110011010000110 \
b11111111111111111111111001101000 \
1[
#1900
1,!
1)!
b1011110010011010 !
b111001011111101 "
1C
b110 D
0E
1F
b10100 .!
1"!
1#!
1!!
1|
1{
1z
1x
0w
0u
0t
0p
1A
0@
0<
09
06
05
04
0o
1n
0j
0i
1h
0g
1e
1b
1`
00
1/
1.
0)
1'
1&
0$
0&!
1'!
#1950
0,!
0)!
0[
b0 \
b11000110011000 \
1[
#2000
1,!
1)!
b1011100110110110 !
b1000101000111000 "
b0 D
b10101 .!
0$!
0#!
0!!
0}
0y
0x
1t
0s
0r
0q
1p
1B
1@
1<
1;
07
16
15
14
03
1m
0l
1j
1g
0e
10
0/
1-
1*
0(
#2050
0,!
0)!
0[
b0 \
b10111001101101101011100 \
1[
#2100
1,!
1)!
b1100101001011001 !
b110100111011011 "
b1 D
1E
0F
b10110 .!
1%!
1!!
1~
0z
1y
1x
1w
0v
1r
1q
0p
0@
1?
1>
08
17
06
1o
0n
0m
1l
0j
1i
0h
0g
1f
0c
0b
1a
0.
1(
0'
0#
1&!
0'!
#2150
0,!
0)!
0[
b0 \
b1101011010011000000000000 \
1[
#2200
1,!
1)!
b10110110110110 !
b111000110010101 "
0C
b100 D
1F
b10111 .!
0"!
0%!
1#!
0~
1}
0|
0y
0t
1s
0B
0>
1=
0;
0:
19
18
05
04
13
0o
1n
1m
0l
1j
0i
1h
1g
0f
1e
1b
0a
0`
12
01
00
1/
0-
1,
0+
0*
1)
0(
0%
1$
1#
1'!
#2250
0,!
0)!
0[
b0 \
b10110000010110011 \
1]
1[
#2300
1,!
1)!
b1000110110001000 !
b1101100100101000 "
1C
b111 D
0E
0F
b11000 .!
1"!
1%!
1$!
0!!
0}
1|
0{
1z
0x
1t
0r
1p
0A
0<
1:
09
08
16
14
0n
0m
1l
0k
0j
0b
1`
02
0,
1+
1*
0)
1(
1'
0&
0$
0&!
0'!
#2350
0,!
0)!
0[
b0 \
0]
b1000100100001000 \
1[
#2400
1,!
1)!
b1010011011111101 !
b11100101001 "
0C
b110 D
1F
b11001 .!
0"!
0%!
1!!
1v
1u
0t
0s
0q
0p
1A
1@
0?
1>
0=
1<
1;
0:
15
1o
1m
1k
1j
1i
0g
1f
0d
1b
12
10
1.
1-
1,
0*
1)
0'
1%
1'!
#2450
0,!
0)!
0[
b0 \
b101111000101011 \
1[
#2500
1,!
1)!
b1100010001110000 !
b10001110011 "
b11010 .!
1~
0|
1{
1y
0w
0v
0A
1?
0>
0<
1:
19
0o
0m
0l
0h
0f
0b
1a
02
00
0/
0+
0)
0%
1$
#2550
0,!
0)!
0[
b0 \
b11111111111100 \
1[
#2600
1,!
1)!
b10111001 !
b110000100110111 "
b0 D
0F
1G
b11011 .!
0$!
0#!
1}
0y
1w
0u
1r
1q
1B
1A
0?
1>
1=
0;
09
07
06
03
1o
1l
0i
1h
0e
0a
0`
12
1/
0,
1+
0(
0$
0#
0'!
1(!
#2650
0,!
0)!
0[
b0 \
b101110010000000 \
1[
#2700
1,!
1)!
b111111011100 !
b101011110000110 "
b110 D
1E
1F
b11100 .!
1$!
1#!
0!!
0{
0z
1x
1v
1u
1s
0r
0A
0@
1?
1<
0:
17
04
13
0o
1m
0j
1i
1g
1f
1e
1d
11
0/
0.
0+
1&
1%
1$
1#
1&!
1'!
#2750
0,!
0)!
0[
b0 \
b101100001011010 \
1[
#2800
1,!
1)!
b1110010011111010 !
b1110111001100001 "
1C
b1 D
0E
0F
b11101 .!
1"!
1%!
0$!
0#!
1!!
0~
0}
1z
1y
0x
0w
1t
0s
1r
1p
0?
0>
19
18
14
1n
0m
1j
0g
0f
0d
1b
1a
1`
02
1/
1.
1,
1+
1(
0&
0&!
0'!
#2850
0,!
0)!
0[
b0 \
b11100100111110100 \
1[
#2900
1,!
1)!
b1000100000110101 !
b1000101000101001 "
b101 D
1F
b11110 .!
1#!
1|
0y
0u
0r
0q
0B
1A
1@
1>
0=
1;
1:
09
07
16
03
1o
0n
1m
0l
0i
0h
0e
1d
0b
0a
12
01
10
0/
0,
0+
0(
1'
0%
0$
1'!
#2950
0,!
0)!
0[
b0 \
b1111110111110111 \
1[
#3000
1,!
1)!
b1110011011101100 !
b1011010001010 "
0C
b0 D
1E
0G
b11111 .!
0"!
0%!
0#!
0!!
1~
0z
1x
1u
0t
1s
0p
1B
0A
1=
0;
08
17
06
13
0o
1l
0k
1i
1h
1f
1e
0d
1b
1a
11
00
0-
1*
1&
0#
1&!
0(!
#3050
0,!
0)!
0[
b0 \
b110010001001100011 \
1[
#3100
1,!
1)!
b110011011100110 !
b1100000010011111 "
b10 D
0F
b100000 .!
1$!
1!!
1}
1{
0v
0u
0s
1q
1p
1A
1?
0=
0<
1;
0:
07
05
1n
0l
0`
01
1/
1#
0'!
#3150
0,!
0)!
0[
b0 \
b11111 _
b10000000000000000000000000000000 \
b11110 _
b11000000000000000000000000000000 \
b11101 _
b11100000000000000000000000000000 \
b11100 _
b11110000000000000000000000000000 \
b11011 _
b11111000000000000000000000000000 \
b11010 _
b11111100000000000000000000000000 \
b11001 _
b11111110000000000000000000000000 \
b11000 _
b11111111000000000000000000000000 \
b10111 _
b11111111100000000000000000000000 \
b10110 _
b11111111110000000000000000000000 \
b10101 _
b11111111111000000000000000000000 \
b10100 _
b11111111111100000000000000000000 \
b10011 _
b11111111111110000000000000000000 \
b10010 _
b11111111111111000000000000000000 \
b10001 _
b11111111111111100000000000000000 \
b10000 _
b11111111111111110000000000000000 \
b1111 _
b11111111111111111001100100011001 \
b11111111111111111111111111111111 \
1[
#3200
1,!
1)!
b1010100001111001 !
b1110001111001000 "
b11 D
1F
b100001 .!
1%!
0!!
0~
0}
0{
1y
1w
1v
1r
0?
1=
0;
18
17
16
04
03
1o
0n
0m
1l
1k
0h
0f
0e
1d
0a
1`
02
11
10
0/
0.
1+
1)
1(
0'
1$
0#
1'!
#3250
0,!
0)!
0[
b0 \
b10101111 \
1[
#3300
1,!
1)!
b1001110110111010 !
b1010101111000100 "
1C
b10 D
0E
b100010 .!
1"!
0%!
1}
0|
1t
0q
0@
1?
07
14
0o
1n
0i
1h
1g
1e
1c
0b
00
1/
1.
1-
0)
1'
0$
1#
0&!
#3350
0,!
0)!
0[
b0 \
b11111 _
b10000000000000000000000000000000 \
b11110 _
b11000000000000000000000000000000 \
b11101 _
b11100000000000000000000000000000 \
b11100 _
b11110000000000000000000000000000 \
b11011 _
b11111000000000000000000000000000 \
b11010 _
b11111100000000000000000000000000 \
b11001 _
b11111110000000000000000000000000 \
b11000 _
b11111111000000000000000000000000 \
b10111 _
b11111111100000000000000000000000 \
b10110 _
b11111111110000000000000000000000 \
b10101 _
b11111111111000000000000000000000 \
b10100 _
b11111111111100000000000000000000 \
b10011 _
b11111111111110000000000000000000 \
b10010 _
b11111111111111000000000000000000 \
b10001 _
b11111111111111100000000000000000 \
b10000 _
b11111111111111110000000000000000 \
b1111 _
b11111111111111111001110110111010 \
b11111111111111111111111111110011 \
1[
#3400
1,!
1)!
b1111010111111010 !
b1001010011110010 "
0C
b101 D
0F
b100011 .!
0"!
1%!
0$!
1#!
1~
0}
1{
1z
0w
0v
1u
0t
1s
0r
0B
0?
1<
1;
04
13
1i
0d
1b
1a
1,
0'
1%
1$
0'!
#3450
0,!
0)!
0[
b0 \
b1111010111111010 \
1[
#3500
1,!
1)!
b111100110101001 !
b1010100010100001 "
b11 D
1E
1F
1G
b100100 .!
1$!
0#!
1!!
0~
0{
0y
0u
1t
0s
1r
1@
1?
0=
0;
1:
19
14
03
1o
0n
0k
0i
0e
1d
0`
10
0/
0-
0+
0*
1)
0&
0%
0$
1&!
1'!
1(!
#3550
0,!
0)!
0[
b0 \
b10 \
1[
#3600
1,!
1)!
b1110010100110110 !
b100100001110101 "
1C
0E
0F
b100101 .!
1}
1{
1y
0x
0r
1q
0p
1B
0A
0?
1=
0:
09
08
17
06
0o
1n
1m
0l
1k
0h
1e
0d
0c
1`
1-
0,
1*
0)
1%
1$
1"!
0&!
0'!
#3650
0,!
0)!
0[
b0 \
b11100101001 \
1[
#3700
1,!
1)!
b100010110010010 !
b1101111100101000 "
b100110 .!
0!!
0}
1|
0{
0y
1w
1v
1u
1s
1p
0B
0@
1?
0>
0<
1:
19
18
16
13
0m
0j
1h
0b
0`
00
0-
1+
0%
0#
#3750
0,!
0)!
0[
b0 \
b1000101 \
1[
#3800
1,!
1)!
b1111110111101100 !
b1001110100011000 "
b110 D
1E
1F
0G
b100111 .!
0%!
1#!
1{
0z
0v
0q
1B
1A
1@
0?
1<
1;
0:
08
07
06
15
03
0n
1m
1l
0k
1j
1i
1d
1c
1b
1`
12
0+
0*
1)
0(
0$
1&!
1'!
0(!
#3850
0,!
0)!
0[
b0 \
b110000011110100 \
1[
#3900
1,!
1)!
b1110100101010011 !
b110001001010110 "
b10 D
0E
b101000 .!
0#!
1~
1}
0|
1y
0w
1v
0u
0t
0s
1r
1q
0p
0A
0@
1?
0<
1:
09
18
17
16
05
04
13
1o
1n
0m
0l
1k
0j
0h
0e
0c
1,
1*
0)
1'
1%
1$
1#
0&!
#3950
0,!
0)!
0[
b0 \
b11111 _
b10000000000000000000000000000000 \
b11110 _
b11000000000000000000000000000000 \
b11101 _
b11100000000000000000000000000000 \
b11100 _
b11110000000000000000000000000000 \
b11011 _
b11111000000000000000000000000000 \
b11010 _
b11111100000000000000000000000000 \
b11001 _
b11111110000000000000000000000000 \
b11000 _
b11111111000000000000000000000000 \
b10111 _
b11111111100000000000000000000000 \
b10110 _
b11111111110000000000000000000000 \
b10101 _
b11111111111000000000000000000000 \
b10100 _
b11111111111100000000000000000000 \
b10011 _
b11111111111110000000000000000000 \
b10010 _
b11111111111111000000000000000000 \
b10001 _
b11111111111111100000000000000000 \
b10000 _
b11111111111111110000000000000000 \
b1111 _
b11111111111111111110100101010011 \
b11111111111111111111111111110100 \
1[
#4000
1,!
1)!
b100110100010010 !
b100010010111000 "
b101 D
1E
1G
b101001 .!
1%!
0$!
1#!
0~
0}
1|
1z
0y
1x
0v
1u
0r
1A
1@
0?
0=
1<
0;
19
08
15
0o
0i
1e
0b
0`
01
10
1/
0.
1-
1+
0*
1)
0'
1&
0$
1&!
1(!
#4050
0,!
0)!
0[
b0 \
b1011101111101111 \
1[
#4100
1,!
1)!
b1000010111001000 !
b101010100100111 "
b111 D
0E
0F
0G
b101010 .!
1$!
1!!
1~
1}
0|
0{
0x
1w
1s
1=
0<
09
18
07
05
14
03
0n
1l
0k
1i
1h
0d
0a
1`
02
00
0-
1*
0)
1(
0&
0%
0&!
0'!
0(!
#4150
0,!
0)!
0[
b0 \
b10100000000 \
1[
#4200
1,!
1)!
b1001001100010100 !
b1011010000010010 "
0C
b1 D
1E
1F
1G
b101011 .!
0"!
0$!
0#!
0!!
0}
1{
0z
0w
1r
0q
1p
0A
1?
1<
1;
19
08
17
06
1m
0l
1k
0i
0h
1f
0e
1c
12
11
1-
0*
1'
1%
1$
0#
1&!
1'!
1(!
#4250
0,!
0)!
0[
b0 \
b1101100111010110000000000000 \
1[
#4300
1,!
1)!
b1101111110101 !
b1110101101 "
1C
b100 D
b101100 .!
1"!
0%!
1#!
1!!
0~
1}
1|
0{
1z
1x
1w
1v
0u
0s
0r
0p
0B
1A
0@
0?
1>
0=
0;
0:
09
18
16
15
13
1o
1j
1i
1h
1d
0`
02
0-
0,
0+
0'
1#
#4350
0,!
0)!
0[
b0 \
b11110000001011101 \
1[
#4400
1,!
1)!
b101011001001001 !
b1011101111011011 "
b1 D
0F
0G
b101101 .!
1%!
0#!
1~
0}
1{
0z
1y
1t
1s
1r
1p
1B
1?
1;
1:
19
08
04
0m
1l
0k
0j
0h
0g
1e
0d
1a
10
0/
1.
1-
1+
1*
0(
1'
0$
0'!
0(!
#4450
0,!
0)!
0[
b0 \
b101010011011011000000000000 \
1[
#4500
1,!
1)!
b10000001000101 !
b10110000011 "
0C
b10 D
0E
1G
b101110 .!
0"!
0%!
1$!
0|
0{
0y
0v
1u
0t
0s
0r
0p
0?
0>
0<
09
18
07
06
05
03
1m
0l
0f
0e
0c
1b
0a
12
01
0.
0-
1,
0+
0*
0'
0#
0&!
1(!
#4550
0,!
0)!
0[
b0 \
b11111 _
b11110 _
b11101 _
b11100 _
b11011 _
b11010 _
b11001 _
b11000 _
b10111 _
b10110 _
b10101 _
b10100 _
b10011 _
b10010 _
b10001 _
b10000 _
b1111 _
b10000001000101 \
b10000001000 \
1[
#4600
1,!
1)!
b110110000110 !
b10000111110000 "
b0 D
b101111 .!
0$!
0!!
0~
1{
1z
1y
0u
1r
0B
0A
1>
1=
1<
08
15
0o
1n
0i
1h
1g
1e
1d
0b
02
11
0,
1+
1*
1(
1'
0%
#4650
0,!
0)!
0[
b0 \
b110110000110 \
1[
#4700
1,!
1)!
b11000111000000 !
b101111101110100 "
1C
0G
b110000 .!
1}
0x
1v
1u
1t
1s
0r
1q
1@
0;
19
18
17
16
05
14
0n
0m
1i
0e
0d
1c
1b
01
00
1,
0(
0'
1&
1%
1"!
0(!
#4750
0,!
0)!
0[
b0 \
b110001110000000011 \
1[
#4800
1,!
1)!
b11010100010101 !
b100111011100001 "
b11 D
1E
1G
b110001 .!
1%!
1$!
1!!
0}
0{
1x
0w
0s
1B
0@
0>
1;
0:
06
1o
1m
1k
0i
0h
1e
11
1/
1-
0*
1)
1'
0&
0%
1$
1#
1&!
1(!
#4850
0,!
0)!
0[
b0 \
b110010101110101 \
1[
#4900
1,!
1)!
b1001110111000001 !
b1010001010001101 "
0C
b111 D
0E
b110010 .!
0"!
1#!
1}
1|
0z
0y
0u
0t
1r
0q
1p
1@
1?
0=
0<
08
07
15
04
13
0m
0k
1i
1h
1d
0b
1`
12
01
0/
0-
1*
0)
1(
1&
0$
0&!
#4950
0,!
0)!
0[
b0 \
b1000000010000001 \
1[
