hw1_3/dump.vcd
$date
	Sun Jan 29 23:24:24 2017
$end
$version
	QuestaSim Version 10.4c
$end
$timescale
	1ns
$end

$scope module seqdec_53_bench $end
$var reg 1 ! InA $end
$var wire 1 " Clk $end
$var wire 1 # Reset $end
$var wire 1 $ Out $end
$var reg 128 % sequenc [127:0] $end
$var integer 32 & k $end
$var reg 8 ' seq [7:0] $end
$var reg 8 ( seqp1 [7:0] $end
$var wire 1 ) err $end

$scope module DUT $end
$var wire 1 * InA $end
$var wire 1 " Clk $end
$var wire 1 # Reset $end
$var wire 1 $ Out $end
$var wire 1 + state [4] $end
$var wire 1 , state [3] $end
$var wire 1 - state [2] $end
$var wire 1 . state [1] $end
$var wire 1 / state [0] $end
$var reg 5 0 next_state [4:0] $end

$scope module curr_state[4] $end
$var wire 1 + q $end
$var wire 1 1 d $end
$var wire 1 " clk $end
$var wire 1 # rst $end
$var reg 1 2 state $end
$upscope $end

$scope module curr_state[3] $end
$var wire 1 , q $end
$var wire 1 3 d $end
$var wire 1 " clk $end
$var wire 1 # rst $end
$var reg 1 4 state $end
$upscope $end

$scope module curr_state[2] $end
$var wire 1 - q $end
$var wire 1 5 d $end
$var wire 1 " clk $end
$var wire 1 # rst $end
$var reg 1 6 state $end
$upscope $end

$scope module curr_state[1] $end
$var wire 1 . q $end
$var wire 1 7 d $end
$var wire 1 " clk $end
$var wire 1 # rst $end
$var reg 1 8 state $end
$upscope $end

$scope module curr_state[0] $end
$var wire 1 / q $end
$var wire 1 9 d $end
$var wire 1 " clk $end
$var wire 1 # rst $end
$var reg 1 : state $end
$upscope $end
$upscope $end

$scope module my_ckrst $end
$var reg 1 ; clk $end
$var reg 1 < rst $end
$var wire 1 ) err $end
$var integer 32 = cycle_count $end
$upscope $end
$upscope $end
$enddefinitions $end
#0
$dumpvars
0!
b1010001000010100001010100101110010111001000010100001000101001101010011001010001010000001010011100101110101001101010011 %
b0 '
b0 (
b0 0
0:
08
06
04
02
1;
1<
b0 &
b1 =
1"
1#
x$
0)
x/
x.
x-
x,
x+
0*
09
07
05
03
01
$end
#1
0+
0,
0-
0.
0/
0$
b1 0
19
#50
0;
0"
#100
1;
1"
b10 =
#150
0;
0"
#200
1;
1"
b11 =
#201
0<
0#
#250
0;
0"
#300
1;
1"
b1 &
1:
b100 =
#301
1/
#350
0;
0"
#400
1;
1"
b10 &
b101 =
#450
0;
0"
#500
1;
1"
b11 &
b110 =
#550
0;
0"
#600
1;
1"
b100 &
b111 =
#650
0;
0"
#700
1;
1"
b101 &
b1000 =
#750
0;
0"
#800
1;
1"
b110 &
b1001 =
#850
0;
0"
#900
1;
1"
b111 &
b1010 =
#950
0;
0"
#1000
1;
1"
b1000 &
b1011 =
#1050
0;
0"
#1100
1;
1"
b1001 &
b1100 =
#1150
0;
0"
#1200
1;
1"
b1010 &
b1101 =
#1250
0;
0"
#1300
1;
1"
1!
b1011 &
b1110 =
1*
b10 0
09
17
b1 '
#1350
0;
0"
#1400
1;
1"
0!
b1100 &
18
0:
b1111 =
0*
b1 0
19
07
b11 '
b10 '
b1 (
#1401
0/
1.
b11 0
17
#1450
0;
0"
#1500
1;
1"
1!
b1101 &
1:
b10000 =
1*
b0 0
09
07
b100 '
b101 '
b10 (
#1501
1/
b100 0
15
#1550
0;
0"
#1600
1;
1"
0!
b1110 &
16
08
0:
b10001 =
0*
b1 0
19
05
b1011 '
b1010 '
b101 (
#1601
0/
0.
1-
b101 0
15
#1650
0;
0"
#1700
1;
1"
b1111 &
1:
b10010 =
b10100 '
b1010 (
#1701
1/
b110 0
09
17
#1750
0;
0"
#1800
1;
1"
b10000 &
18
0:
b10011 =
b101000 '
b10100 (
#1801
0/
1.
b1 0
19
07
05
#1850
0;
0"
#1900
1;
1"
1!
b10001 &
06
1:
08
b10100 =
1*
b111 0
17
15
b1010000 '
b1010001 '
b101000 (
#1901
0.
1/
0-
b10 0
09
05
#1950
0;
0"
#2000
1;
1"
0!
b10010 &
18
0:
b10101 =
0*
b1 0
19
07
b10100011 '
b10100010 '
b1010001 (
#2001
0/
1.
b11 0
17
#2050
0;
0"
#2100
1;
1"
b10011 &
1:
b10110 =
b1000100 '
b10100010 (
#2101
1/
b1 0
07
#2150
0;
0"
#2200
1;
1"
b10100 &
08
b10111 =
b10001000 '
b1000100 (
#2201
0.
#2250
0;
0"
#2300
1;
1"
b10101 &
b11000 =
b10000 '
b10001000 (
#2350
0;
0"
#2400
1;
1"
1!
b10110 &
b11001 =
1*
b10 0
09
17
b100000 '
b100001 '
b10000 (
#2450
0;
0"
#2500
1;
1"
0!
b10111 &
18
0:
b11010 =
0*
b1 0
19
07
b1000011 '
b1000010 '
b100001 (
#2501
0/
1.
b11 0
17
#2550
0;
0"
#2600
1;
1"
1!
b11000 &
1:
b11011 =
1*
b0 0
09
07
b10000100 '
b10000101 '
b1000010 (
#2601
1/
b100 0
15
#2650
0;
0"
#2700
1;
1"
0!
b11001 &
16
08
0:
b11100 =
0*
b1 0
19
05
b1011 '
b1010 '
b10000101 (
#2701
0/
0.
1-
b101 0
15
#2750
0;
0"
#2800
1;
1"
b11010 &
1:
b11101 =
b10100 '
b1010 (
#2801
1/
b110 0
09
17
#2850
0;
0"
#2900
1;
1"
b11011 &
18
0:
b11110 =
b101000 '
b10100 (
#2901
0/
1.
b1 0
19
07
05
#2950
0;
0"
#3000
1;
1"
b11100 &
06
1:
08
b11111 =
b1010000 '
b101000 (
#3001
0.
1/
0-
#3050
0;
0"
#3100
1;
1"
1!
b11101 &
b100000 =
1*
b10 0
09
17
b10100000 '
b10100001 '
b1010000 (
#3150
0;
0"
#3200
1;
1"
0!
b11110 &
18
0:
b100001 =
0*
b1 0
19
07
b1000011 '
b1000010 '
b10100001 (
#3201
0/
1.
b11 0
17
#3250
0;
0"
#3300
1;
1"
1!
b11111 &
1:
b100010 =
1*
b0 0
09
07
b10000100 '
b10000101 '
b1000010 (
#3301
1/
b100 0
15
#3350
0;
0"
#3400
1;
1"
0!
b100000 &
16
08
0:
b100011 =
0*
b1 0
19
05
b1011 '
b1010 '
b10000101 (
#3401
0/
0.
1-
b101 0
15
#3450
0;
0"
#3500
1;
1"
1!
b100001 &
1:
b100100 =
1*
b0 0
09
05
b10100 '
b10101 '
b1010 (
#3501
1/
b10 0
17
#3550
0;
0"
#3600
1;
1"
0!
b100010 &
18
06
0:
b100101 =
0*
b110 0
15
b101011 '
b101010 '
b10101 (
#3601
0/
0-
1.
b11 0
19
05
#3650
0;
0"
#3700
1;
1"
b100011 &
1:
b100110 =
b1010100 '
b101010 (
#3701
1/
b1 0
07
#3750
0;
0"
#3800
1;
1"
1!
b100100 &
08
b100111 =
1*
b100 0
09
15
b10101000 '
b10101001 '
b1010100 (
#3801
0.
b10 0
17
05
#3850
0;
0"
#3900
1;
1"
0!
b100101 &
0:
18
b101000 =
0*
b1 0
19
07
b1010011 '
b1010010 '
b10101001 (
#3901
1.
0/
b11 0
17
#3950
0;
0"
#4000
1;
1"
1!
b100110 &
1:
b101001 =
1*
b0 0
09
07
b10100100 '
b10100101 '
b1010010 (
#4001
1/
b100 0
15
#4050
0;
0"
#4100
1;
1"
b100111 &
16
08
0:
b101010 =
b1001011 '
b10100101 (
#4101
0/
0.
1-
b0 0
05
#4150
0;
0"
#4200
1;
1"
b101000 &
06
b101011 =
b10010111 '
b1001011 (
#4201
0-
#4250
0;
0"
#4300
1;
1"
0!
b101001 &
b101100 =
0*
b1 0
19
b101111 '
b101110 '
b10010111 (
#4350
0;
0"
#4400
1;
1"
b101010 &
1:
b101101 =
b1011100 '
b101110 (
#4401
1/
#4450
0;
0"
#4500
1;
1"
1!
b101011 &
b101110 =
1*
b10 0
09
17
b10111000 '
b10111001 '
b1011100 (
#4550
0;
0"
#4600
1;
1"
0!
b101100 &
18
0:
b101111 =
0*
b1 0
19
07
b1110011 '
b1110010 '
b10111001 (
#4601
0/
1.
b11 0
17
#4650
0;
0"
#4700
1;
1"
1!
b101101 &
1:
b110000 =
1*
b0 0
09
07
b11100100 '
b11100101 '
b1110010 (
#4701
1/
b100 0
15
#4750
0;
0"
#4800
1;
1"
b101110 &
16
08
0:
b110001 =
b11001011 '
b11100101 (
#4801
0/
0.
1-
b0 0
05
#4850
0;
0"
#4900
1;
1"
b101111 &
06
b110010 =
b10010111 '
b11001011 (
#4901
0-
#4950
0;
0"
#5000
1;
1"
0!
b110000 &
b110011 =
0*
b1 0
19
b101111 '
b101110 '
b10010111 (
#5050
0;
0"
#5100
1;
1"
b110001 &
1:
b110100 =
b1011100 '
b101110 (
#5101
1/
#5150
0;
0"
#5200
1;
1"
1!
b110010 &
b110101 =
1*
b10 0
09
17
b10111000 '
b10111001 '
b1011100 (
#5250
0;
0"
#5300
1;
1"
0!
b110011 &
18
0:
b110110 =
0*
b1 0
19
07
b1110011 '
b1110010 '
b10111001 (
#5301
0/
1.
b11 0
17
#5350
0;
0"
#5400
1;
1"
b110100 &
1:
b110111 =
b11100100 '
b1110010 (
#5401
1/
b1 0
07
#5450
0;
0"
#5500
1;
1"
b110101 &
08
b111000 =
b11001000 '
b11100100 (
#5501
0.
#5550
0;
0"
#5600
1;
1"
b110110 &
b111001 =
b10010000 '
b11001000 (
#5650
0;
0"
#5700
1;
1"
1!
b110111 &
b111010 =
1*
b10 0
09
17
b100000 '
b100001 '
b10010000 (
#5750
0;
0"
#5800
1;
1"
0!
b111000 &
18
0:
b111011 =
0*
b1 0
19
07
b1000011 '
b1000010 '
b100001 (
#5801
0/
1.
b11 0
17
#5850
0;
0"
#5900
1;
1"
1!
b111001 &
1:
b111100 =
1*
b0 0
09
07
b10000100 '
b10000101 '
b1000010 (
#5901
1/
b100 0
15
#5950
0;
0"
#6000
1;
1"
0!
b111010 &
16
08
0:
b111101 =
0*
b1 0
19
05
b1011 '
b1010 '
b10000101 (
#6001
0/
0.
1-
b101 0
15
#6050
0;
0"
#6100
1;
1"
b111011 &
1:
b111110 =
b10100 '
b1010 (
#6101
1/
b110 0
09
17
#6150
0;
0"
#6200
1;
1"
b111100 &
18
0:
b111111 =
b101000 '
b10100 (
#6201
0/
1.
b1 0
19
07
05
#6250
0;
0"
#6300
1;
1"
b111101 &
06
1:
08
b1000000 =
b1010000 '
b101000 (
#6301
0.
1/
0-
#6350
0;
0"
#6400
1;
1"
1!
b111110 &
b1000001 =
1*
b10 0
09
17
b10100000 '
b10100001 '
b1010000 (
#6450
0;
0"
#6500
1;
1"
0!
b111111 &
18
0:
b1000010 =
0*
b1 0
19
07
b1000011 '
b1000010 '
b10100001 (
#6501
0/
1.
b11 0
17
#6550
0;
0"
#6600
1;
1"
b1000000 &
1:
b1000011 =
b10000100 '
b1000010 (
#6601
1/
b1 0
07
#6650
0;
0"
#6700
1;
1"
b1000001 &
08
b1000100 =
b1000 '
b10000100 (
#6701
0.
#6750
0;
0"
#6800
1;
1"
1!
b1000010 &
b1000101 =
1*
b10 0
09
17
b10000 '
b10001 '
b1000 (
#6850
0;
0"
#6900
1;
1"
0!
b1000011 &
18
0:
b1000110 =
0*
b1 0
19
07
b100011 '
b100010 '
b10001 (
#6901
0/
1.
b11 0
17
#6950
0;
0"
#7000
1;
1"
1!
b1000100 &
1:
b1000111 =
1*
b0 0
09
07
b1000100 '
b1000101 '
b100010 (
#7001
1/
b100 0
15
#7050
0;
0"
#7100
1;
1"
0!
b1000101 &
16
08
0:
b1001000 =
0*
b1 0
19
05
b10001011 '
b10001010 '
b1000101 (
#7101
0/
0.
1-
b101 0
15
#7150
0;
0"
#7200
1;
1"
b1000110 &
1:
b1001001 =
b10100 '
b10001010 (
#7201
1/
b110 0
09
17
#7250
0;
0"
#7300
1;
1"
1!
b1000111 &
18
0:
b1001010 =
1*
b10 0
05
b101000 '
b101001 '
b10100 (
#7301
0/
1.
b111 0
19
15
#7350
0;
0"
#7400
1;
1"
b1001000 &
1:
b1001011 =
b1010011 '
b101001 (
#7401
1/
b1000 0
09
07
05
13
#7450
0;
0"
#7500
1;
1"
0!
b1001001 &
14
06
08
0:
b1001100 =
0*
b11 0
19
17
03
b10100111 '
b10100110 '
b1010011 (
#7501
0/
0.
0-
1,
1$
b1 0
07
#7550
0;
0"
#7600
1;
1"
1!
b1001010 &
1:
04
b1001101 =
1*
b0 0
09
b1001100 '
b1001101 '
b10100110 (
#7601
0,
1/
0$
b10 0
17
#7650
0;
0"
#7700
1;
1"
0!
b1001011 &
18
0:
b1001110 =
0*
b1 0
19
07
b10011011 '
b10011010 '
b1001101 (
#7701
0/
1.
b11 0
17
#7750
0;
0"
#7800
1;
1"
1!
b1001100 &
1:
b1001111 =
1*
b0 0
09
07
b110100 '
b110101 '
b10011010 (
#7801
1/
b100 0
15
#7850
0;
0"
#7900
1;
1"
0!
b1001101 &
16
08
0:
b1010000 =
0*
b1 0
19
05
b1101011 '
b1101010 '
b110101 (
#7901
0/
0.
1-
b101 0
15
#7950
0;
0"
#8000
1;
1"
b1001110 &
1:
b1010001 =
b11010100 '
b1101010 (
#8001
1/
b110 0
09
17
#8050
0;
0"
#8100
1;
1"
1!
b1001111 &
18
0:
b1010010 =
1*
b10 0
05
b10101000 '
b10101001 '
b11010100 (
#8101
0/
1.
b111 0
19
15
#8150
0;
0"
#8200
1;
1"
b1010000 &
1:
b1010011 =
b1010011 '
b10101001 (
#8201
1/
b1000 0
09
07
05
13
#8250
0;
0"
#8300
1;
1"
0!
b1010001 &
14
06
08
0:
b1010100 =
0*
b11 0
19
17
03
b10100111 '
b10100110 '
b1010011 (
#8301
0/
0.
0-
1,
1$
b1 0
07
#8350
0;
0"
#8400
1;
1"
b1010010 &
1:
04
b1010101 =
b1001100 '
b10100110 (
#8401
0,
1/
0$
#8450
0;
0"
#8500
1;
1"
1!
b1010011 &
b1010110 =
1*
b10 0
09
17
b10011000 '
b10011001 '
b1001100 (
#8550
0;
0"
#8600
1;
1"
0!
b1010100 &
18
0:
b1010111 =
0*
b1 0
19
07
b110011 '
b110010 '
b10011001 (
#8601
0/
1.
b11 0
17
#8650
0;
0"
#8700
1;
1"
1!
b1010101 &
1:
b1011000 =
1*
b0 0
09
07
b1100100 '
b1100101 '
b110010 (
#8701
1/
b100 0
15
#8750
0;
0"
#8800
1;
1"
0!
b1010110 &
16
08
0:
b1011001 =
0*
b1 0
19
05
b11001011 '
b11001010 '
b1100101 (
#8801
0/
0.
1-
b101 0
15
#8850
0;
0"
#8900
1;
1"
b1010111 &
1:
b1011010 =
b10010100 '
b11001010 (
#8901
1/
b110 0
09
17
#8950
0;
0"
#9000
1;
1"
b1011000 &
18
0:
b1011011 =
b101000 '
b10010100 (
#9001
0/
1.
b1 0
19
07
05
#9050
0;
0"
#9100
1;
1"
1!
b1011001 &
06
1:
08
b1011100 =
1*
b111 0
17
15
b1010000 '
b1010001 '
b101000 (
#9101
0.
1/
0-
b10 0
09
05
#9150
0;
0"
#9200
1;
1"
0!
b1011010 &
18
0:
b1011101 =
0*
b1 0
19
07
b10100011 '
b10100010 '
b1010001 (
#9201
0/
1.
b11 0
17
#9250
0;
0"
#9300
1;
1"
1!
b1011011 &
1:
b1011110 =
1*
b0 0
09
07
b1000100 '
b1000101 '
b10100010 (
#9301
1/
b100 0
15
#9350
0;
0"
#9400
1;
1"
0!
b1011100 &
16
08
0:
b1011111 =
0*
b1 0
19
05
b10001011 '
b10001010 '
b1000101 (
#9401
0/
0.
1-
b101 0
15
#9450
0;
0"
#9500
1;
1"
b1011101 &
1:
b1100000 =
b10100 '
b10001010 (
#9501
1/
b110 0
09
17
#9550
0;
0"
#9600
1;
1"
b1011110 &
18
0:
b1100001 =
b101000 '
b10100 (
#9601
0/
1.
b1 0
19
07
05
#9650
0;
0"
#9700
1;
1"
b1011111 &
06
1:
08
b1100010 =
b1010000 '
b101000 (
#9701
0.
1/
0-
#9750
0;
0"
#9800
1;
1"
b1100000 &
b1100011 =
b10100000 '
b1010000 (
#9850
0;
0"
#9900
1;
1"
b1100001 &
b1100100 =
b1000000 '
b10100000 (
#9950
0;
0"
#10000
1;
1"
1!
b1100010 &
b1100101 =
1*
b10 0
09
17
b10000000 '
b10000001 '
b1000000 (
#10050
0;
0"
#10100
1;
1"
0!
b1100011 &
18
0:
b1100110 =
0*
b1 0
19
07
b11 '
b10 '
b10000001 (
#10101
0/
1.
b11 0
17
#10150
0;
0"
#10200
1;
1"
1!
b1100100 &
1:
b1100111 =
1*
b0 0
09
07
b100 '
b101 '
b10 (
#10201
1/
b100 0
15
#10250
0;
0"
#10300
1;
1"
0!
b1100101 &
16
08
0:
b1101000 =
0*
b1 0
19
05
b1011 '
b1010 '
b101 (
#10301
0/
0.
1-
b101 0
15
#10350
0;
0"
#10400
1;
1"
b1100110 &
1:
b1101001 =
b10100 '
b1010 (
#10401
1/
b110 0
09
17
#10450
0;
0"
#10500
1;
1"
1!
b1100111 &
18
0:
b1101010 =
1*
b10 0
05
b101000 '
b101001 '
b10100 (
#10501
0/
1.
b111 0
19
15
#10550
0;
0"
#10600
1;
1"
b1101000 &
1:
b1101011 =
b1010011 '
b101001 (
#10601
1/
b1000 0
09
07
05
13
#10650
0;
0"
#10700
1;
1"
b1101001 &
14
06
08
0:
b1101100 =
b10100111 '
b1010011 (
#10701
0/
0.
0-
1,
1$
b0 0
03
#10750
0;
0"
#10800
1;
1"
0!
b1101010 &
04
b1101101 =
0*
b1 0
19
b1001111 '
b1001110 '
b10100111 (
#10801
0,
0$
#10850
0;
0"
#10900
1;
1"
b1101011 &
1:
b1101110 =
b10011100 '
b1001110 (
#10901
1/
#10950
0;
0"
#11000
1;
1"
1!
b1101100 &
b1101111 =
1*
b10 0
09
17
b111000 '
b111001 '
b10011100 (
#11050
0;
0"
#11100
1;
1"
0!
b1101101 &
18
0:
b1110000 =
0*
b1 0
19
07
b1110011 '
b1110010 '
b111001 (
#11101
0/
1.
b11 0
17
#11150
0;
0"
#11200
1;
1"
1!
b1101110 &
1:
b1110001 =
1*
b0 0
09
07
b11100100 '
b11100101 '
b1110010 (
#11201
1/
b100 0
15
#11250
0;
0"
#11300
1;
1"
b1101111 &
16
08
0:
b1110010 =
b11001011 '
b11100101 (
#11301
0/
0.
1-
b0 0
05
#11350
0;
0"
#11400
1;
1"
b1110000 &
06
b1110011 =
b10010111 '
b11001011 (
#11401
0-
#11450
0;
0"
#11500
1;
1"
0!
b1110001 &
b1110100 =
0*
b1 0
19
b101111 '
b101110 '
b10010111 (
#11550
0;
0"
#11600
1;
1"
1!
b1110010 &
1:
b1110101 =
1*
b0 0
09
b1011100 '
b1011101 '
b101110 (
#11601
1/
b10 0
17
#11650
0;
0"
#11700
1;
1"
0!
b1110011 &
18
0:
b1110110 =
0*
b1 0
19
07
b10111011 '
b10111010 '
b1011101 (
#11701
0/
1.
b11 0
17
#11750
0;
0"
#11800
1;
1"
1!
b1110100 &
1:
b1110111 =
1*
b0 0
09
07
b1110100 '
b1110101 '
b10111010 (
#11801
1/
b100 0
15
#11850
0;
0"
#11900
1;
1"
0!
b1110101 &
16
08
0:
b1111000 =
0*
b1 0
19
05
b11101011 '
b11101010 '
b1110101 (
#11901
0/
0.
1-
b101 0
15
#11950
0;
0"
#12000
1;
1"
b1110110 &
1:
b1111001 =
b11010100 '
b11101010 (
#12001
1/
b110 0
09
17
#12050
0;
0"
#12100
1;
1"
1!
b1110111 &
18
0:
b1111010 =
1*
b10 0
05
b10101000 '
b10101001 '
b11010100 (
#12101
0/
1.
b111 0
19
15
#12150
0;
0"
#12200
1;
1"
b1111000 &
1:
b1111011 =
b1010011 '
b10101001 (
#12201
1/
b1000 0
09
07
05
13
#12250
0;
0"
#12300
1;
1"
0!
b1111001 &
14
06
08
0:
b1111100 =
0*
b11 0
19
17
03
b10100111 '
b10100110 '
b1010011 (
#12301
0/
0.
0-
1,
1$
b1 0
07
#12350
0;
0"
#12400
1;
1"
1!
b1111010 &
1:
04
b1111101 =
1*
b0 0
09
b1001100 '
b1001101 '
b10100110 (
#12401
0,
1/
0$
b10 0
17
#12450
0;
0"
#12500
1;
1"
0!
b1111011 &
18
0:
b1111110 =
0*
b1 0
19
07
b10011011 '
b10011010 '
b1001101 (
#12501
0/
1.
b11 0
17
#12550
0;
0"
#12600
1;
1"
1!
b1111100 &
1:
b1111111 =
1*
b0 0
09
07
b110100 '
b110101 '
b10011010 (
#12601
1/
b100 0
15
#12650
0;
0"
#12700
1;
1"
0!
b1111101 &
16
08
0:
b10000000 =
0*
b1 0
19
05
b1101011 '
b1101010 '
b110101 (
#12701
0/
0.
1-
b101 0
15
#12750
0;
0"
#12800
1;
1"
b1111110 &
1:
b10000001 =
b11010100 '
b1101010 (
#12801
1/
b110 0
09
17
#12850
0;
0"
#12900
1;
1"
1!
b1111111 &
18
0:
b10000010 =
1*
b10 0
05
b10101000 '
b10101001 '
b11010100 (
#12901
0/
1.
b111 0
19
15
#12950
0;
0"
#13000
1;
1"
b10000000 &
